01.01.18 1:44;5 Element;Phone;4444000033331110;100
02.01.18 12:23;Onliner;Headphones;4444000022221110;30
03.01.18 14:56;Deal;Earphones;4444000021342110;20
04.01.18 3:32;21 Vek;Mouse;4444000033331110;40
05.01.18 19:12;5 Element;Micophone;4444000054142450;50
06.01.18 22:41;21 Vek;CPU;4444000010242450;400
07.01.18 17:01;Onliner;Java Book;4444000014142450;10
15.02.18 11:42;DarkShop;Gun;4444000014142450;500
15.02.18 11:42;DarkShop;Bullets;5444000014142450;50